OFF
8 12 12
 1.0   0.0   1.0
 0.0   1.0   1.0
-1.0   0.0   1.0
 0.0  -1.0   1.0
 1.0   0.0  -1.0
 0.0   1.0  -1.0
-1.0   0.0  -1.0
 0.0  -1.0  -1.0
 3  0 1 2
 3  2 3 0
 3  7 4 0
 3  0 3 7
 3  4 5 1  
 3  1 0 4
 3  5 6 2  
 3  2 1 5
 3  3 2 6  
 3  6 7 3
 3  6 5 4
 3  4 7 6